%YAML 1.1
%TAG !u! tag:unity3d.com,2011:
--- !u!21 &2100000
Material:
  serializedVersion: 6
  m_ObjectHideFlags: 0
  m_CorrespondingSourceObject: {fileID: 0}
  m_PrefabInstance: {fileID: 0}
  m_PrefabAsset: {fileID: 0}
  m_Name: NOS_Elen_fire1
  m_Shader: {fileID: 4800000, guid: 5f8144fd17fa130428b159472fc4335f, type: 3}
  m_ShaderKeywords: 
  m_LightmapFlags: 0
  m_EnableInstancingVariants: 0
  m_DoubleSidedGI: 0
  m_CustomRenderQueue: -1
  stringTagMap: {}
  disabledShaderPasses: []
  m_SavedProperties:
    serializedVersion: 3
    m_TexEnvs:
    - _TextureSample0:
        m_Texture: {fileID: 2800000, guid: 23a3c931ca1a40a4792e511306bcf92d, type: 3}
        m_Scale: {x: 1, y: 1}
        m_Offset: {x: 0, y: 0}
    - _texcoord:
        m_Texture: {fileID: 0}
        m_Scale: {x: 1, y: 1}
        m_Offset: {x: 0, y: 0}
    m_Floats:
    - _Float1: 1.95
    - _ToggleSwitch0: 0
    - __dirty: 0
    m_Colors:
    - _Color0: {r: 99.30876, g: 0, b: 1.4189658, a: 0}
