%YAML 1.1
%TAG !u! tag:unity3d.com,2011:
--- !u!114 &11400000
MonoBehaviour:
  m_ObjectHideFlags: 0
  m_CorrespondingSourceObject: {fileID: 0}
  m_PrefabInstance: {fileID: 0}
  m_PrefabAsset: {fileID: 0}
  m_GameObject: {fileID: 0}
  m_Enabled: 1
  m_EditorHideFlags: 0
  m_Script: {fileID: 11500000, guid: bfa2271e2fc864444b5b57e386e28d5d, type: 3}
  m_Name: MAT_Terrain_propdata
  m_EditorClassIdentifier: 
  values:
  - {r: 1, g: 1, b: 0, a: 0}
  - {r: 1, g: 1, b: 0, a: 0}
  - {r: 100, g: 10, b: 0, a: 0}
  - {r: 0, g: 0, b: 0, a: 0}
  - {r: 0, g: 0, b: 0, a: 0}
  - {r: 0, g: 0, b: 0, a: 0}
  - {r: 0, g: 0, b: 0, a: 0}
  - {r: 0, g: 0, b: 0, a: 0}
  - {r: 0, g: 0, b: 0, a: 0}
  - {r: 0, g: 0, b: 0, a: 0}
  - {r: 0, g: 0, b: 0, a: 0}
  - {r: 0, g: 0, b: 0, a: 0}
  - {r: 0, g: 0, b: 0, a: 0}
  - {r: 0, g: 0, b: 0, a: 0}
  - {r: 0, g: 0, b: 0, a: 0}
  - {r: 0, g: 0, b: 0, a: 0}
  - {r: 0, g: 0, b: 0, a: 0}
  - {r: 0, g: 0, b: 0, a: 0}
  - {r: 0, g: 0, b: 0, a: 0}
  - {r: 0, g: 0, b: 0, a: 0}
  - {r: 0, g: 0, b: 0, a: 0}
  - {r: 0, g: 0, b: 0, a: 0}
  - {r: 0, g: 0, b: 0, a: 0}
  - {r: 0, g: 0, b: 0, a: 0}
  - {r: 0, g: 0, b: 0, a: 0}
  - {r: 0, g: 0, b: 0, a: 0}
  - {r: 0, g: 0, b: 0, a: 0}
  - {r: 0, g: 0, b: 0, a: 0}
  - {r: 0, g: 0, b: 0, a: 0}
  - {r: 0, g: 0, b: 0, a: 0}
  - {r: 0, g: 0, b: 0, a: 0}
  - {r: 0, g: 0, b: 0, a: 0}
  - {r: 1, g: 1, b: 1, a: 0}
  - {r: 1, g: 1, b: 1, a: 0}
  - {r: 1, g: 0, b: 0, a: 0}
  - {r: 1, g: 1, b: 1, a: 0}
  - {r: 1, g: 1, b: 1, a: 0}
  - {r: 0.5849056, g: 0.251068, b: 0.251068, a: 0}
  - {r: 1, g: 1, b: 1, a: 0}
  - {r: 1, g: 1, b: 1, a: 0}
  - {r: 1, g: 1, b: 1, a: 0}
  - {r: 1, g: 1, b: 1, a: 0}
  - {r: 1, g: 1, b: 1, a: 0}
  - {r: 1, g: 1, b: 1, a: 0}
  - {r: 1, g: 1, b: 1, a: 0}
  - {r: 1, g: 1, b: 1, a: 0}
  - {r: 1, g: 1, b: 1, a: 0}
  - {r: 1, g: 1, b: 1, a: 0}
  - {r: 1, g: 1, b: 1, a: 0}
  - {r: 1, g: 1, b: 1, a: 0}
  - {r: 1, g: 1, b: 1, a: 0}
  - {r: 1, g: 1, b: 1, a: 0}
  - {r: 1, g: 1, b: 1, a: 0}
  - {r: 1, g: 1, b: 1, a: 0}
  - {r: 1, g: 1, b: 1, a: 0}
  - {r: 1, g: 1, b: 1, a: 0}
  - {r: 1, g: 1, b: 1, a: 0}
  - {r: 1, g: 1, b: 1, a: 0}
  - {r: 1, g: 1, b: 1, a: 0}
  - {r: 1, g: 1, b: 1, a: 0}
  - {r: 1, g: 1, b: 1, a: 0}
  - {r: 1, g: 1, b: 1, a: 0}
  - {r: 1, g: 1, b: 1, a: 0}
  - {r: 1, g: 1, b: 1, a: 0}
  - {r: 1, g: 0, b: 1, a: 0}
  - {r: 1, g: 0, b: 1, a: 0}
  - {r: 1, g: -0.302, b: 1, a: 0}
  - {r: 1, g: 0, b: 1, a: 0}
  - {r: 1, g: 0, b: 1, a: 0}
  - {r: 1, g: 0, b: 1, a: 0}
  - {r: 1, g: 0, b: 1, a: 0}
  - {r: 1, g: 0, b: 1, a: 0}
  - {r: 1, g: 0, b: 1, a: 0}
  - {r: 1, g: 0, b: 1, a: 0}
  - {r: 1, g: 0, b: 1, a: 0}
  - {r: 1, g: 0, b: 1, a: 0}
  - {r: 1, g: 0, b: 1, a: 0}
  - {r: 1, g: 0, b: 1, a: 0}
  - {r: 1, g: 0, b: 1, a: 0}
  - {r: 1, g: 0, b: 1, a: 0}
  - {r: 1, g: 0, b: 1, a: 0}
  - {r: 1, g: 0, b: 1, a: 0}
  - {r: 1, g: 0, b: 1, a: 0}
  - {r: 1, g: 0, b: 1, a: 0}
  - {r: 1, g: 0, b: 1, a: 0}
  - {r: 1, g: 0, b: 1, a: 0}
  - {r: 1, g: 0, b: 1, a: 0}
  - {r: 1, g: 0, b: 1, a: 0}
  - {r: 1, g: 0, b: 1, a: 0}
  - {r: 1, g: 0, b: 1, a: 0}
  - {r: 1, g: 0, b: 1, a: 0}
  - {r: 1, g: 0, b: 1, a: 0}
  - {r: 1, g: 0, b: 1, a: 0}
  - {r: 1, g: 0, b: 1, a: 0}
  - {r: 1, g: 0, b: 1, a: 0}
  - {r: 1, g: 0, b: 1, a: 0}
  - {r: 0, g: 1, b: 0.4, a: 1}
  - {r: 0, g: 1, b: 0.4, a: 1}
  - {r: 0, g: 1, b: 0.4, a: 1}
  - {r: 0, g: 1, b: 0.4, a: 1}
  - {r: 0, g: 1, b: 0.4, a: 1}
  - {r: 0, g: 1, b: 0.4, a: 1}
  - {r: 0, g: 1, b: 0.4, a: 1}
  - {r: 0, g: 1, b: 0.4, a: 1}
  - {r: 0, g: 1, b: 0.4, a: 1}
  - {r: 0, g: 1, b: 0.4, a: 1}
  - {r: 0, g: 1, b: 0.4, a: 1}
  - {r: 0, g: 1, b: 0.4, a: 1}
  - {r: 0, g: 1, b: 0.4, a: 1}
  - {r: 0, g: 1, b: 0.4, a: 1}
  - {r: 0, g: 1, b: 0.4, a: 1}
  - {r: 0, g: 1, b: 0.4, a: 1}
  - {r: 0, g: 1, b: 0.4, a: 1}
  - {r: 0, g: 1, b: 0.4, a: 1}
  - {r: 0, g: 1, b: 0.4, a: 1}
  - {r: 0, g: 1, b: 0.4, a: 1}
  - {r: 0, g: 1, b: 0.4, a: 1}
  - {r: 0, g: 1, b: 0.4, a: 1}
  - {r: 0, g: 1, b: 0.4, a: 1}
  - {r: 0, g: 1, b: 0.4, a: 1}
  - {r: 0, g: 1, b: 0.4, a: 1}
  - {r: 0, g: 1, b: 0.4, a: 1}
  - {r: 0, g: 1, b: 0.4, a: 1}
  - {r: 0, g: 1, b: 0.4, a: 1}
  - {r: 0, g: 1, b: 0.4, a: 1}
  - {r: 0, g: 1, b: 0.4, a: 1}
  - {r: 0, g: 1, b: 0.4, a: 1}
  - {r: 0, g: 1, b: 0.4, a: 1}
  - {r: 0, g: 0, b: 0, a: 0}
  - {r: 0, g: 0, b: 0, a: 0}
  - {r: 0, g: 0, b: 0, a: 0}
  - {r: 0, g: 0, b: 0, a: 0}
  - {r: 0, g: 0, b: 0, a: 0}
  - {r: 0, g: 0, b: 0, a: 0}
  - {r: 0, g: 0, b: 0, a: 0}
  - {r: 0, g: 0, b: 0, a: 0}
  - {r: 0, g: 0, b: 0, a: 0}
  - {r: 0, g: 0, b: 0, a: 0}
  - {r: 0, g: 0, b: 0, a: 0}
  - {r: 0, g: 0, b: 0, a: 0}
  - {r: 0, g: 0, b: 0, a: 0}
  - {r: 0, g: 0, b: 0, a: 0}
  - {r: 0, g: 0, b: 0, a: 0}
  - {r: 0, g: 0, b: 0, a: 0}
  - {r: 0, g: 0, b: 0, a: 0}
  - {r: 0, g: 0, b: 0, a: 0}
  - {r: 0, g: 0, b: 0, a: 0}
  - {r: 0, g: 0, b: 0, a: 0}
  - {r: 0, g: 0, b: 0, a: 0}
  - {r: 0, g: 0, b: 0, a: 0}
  - {r: 0, g: 0, b: 0, a: 0}
  - {r: 0, g: 0, b: 0, a: 0}
  - {r: 0, g: 0, b: 0, a: 0}
  - {r: 0, g: 0, b: 0, a: 0}
  - {r: 0, g: 0, b: 0, a: 0}
  - {r: 0, g: 0, b: 0, a: 0}
  - {r: 0, g: 0, b: 0, a: 0}
  - {r: 0, g: 0, b: 0, a: 0}
  - {r: 0, g: 0, b: 0, a: 0}
  - {r: 0, g: 0, b: 0, a: 0}
  - {r: 0, g: 0, b: 0, a: 0}
  - {r: 0, g: 0, b: 0, a: 0}
  - {r: 0, g: 0, b: 0, a: 0}
  - {r: 0, g: 0, b: 0, a: 0}
  - {r: 0, g: 0, b: 0, a: 0}
  - {r: 0, g: 0, b: 0, a: 0}
  - {r: 0, g: 0, b: 0, a: 0}
  - {r: 0, g: 0, b: 0, a: 0}
  - {r: 0, g: 0, b: 0, a: 0}
  - {r: 0, g: 0, b: 0, a: 0}
  - {r: 0, g: 0, b: 0, a: 0}
  - {r: 0, g: 0, b: 0, a: 0}
  - {r: 0, g: 0, b: 0, a: 0}
  - {r: 0, g: 0, b: 0, a: 0}
  - {r: 0, g: 0, b: 0, a: 0}
  - {r: 0, g: 0, b: 0, a: 0}
  - {r: 0, g: 0, b: 0, a: 0}
  - {r: 0, g: 0, b: 0, a: 0}
  - {r: 0, g: 0, b: 0, a: 0}
  - {r: 0, g: 0, b: 0, a: 0}
  - {r: 0, g: 0, b: 0, a: 0}
  - {r: 0, g: 0, b: 0, a: 0}
  - {r: 0, g: 0, b: 0, a: 0}
  - {r: 0, g: 0, b: 0, a: 0}
  - {r: 0, g: 0, b: 0, a: 0}
  - {r: 0, g: 0, b: 0, a: 0}
  - {r: 0, g: 0, b: 0, a: 0}
  - {r: 0, g: 0, b: 0, a: 0}
  - {r: 0, g: 0, b: 0, a: 0}
  - {r: 0, g: 0, b: 0, a: 0}
  - {r: 0, g: 0, b: 0, a: 0}
  - {r: 0, g: 0, b: 0, a: 0}
  - {r: 0, g: 0, b: 0, a: 0}
  - {r: 0, g: 0, b: 0, a: 0}
  - {r: 0, g: 0, b: 0, a: 0}
  - {r: 0, g: 0, b: 0, a: 0}
  - {r: 0, g: 0, b: 0, a: 0}
  - {r: 0, g: 0, b: 0, a: 0}
  - {r: 0, g: 0, b: 0, a: 0}
  - {r: 0, g: 0, b: 0, a: 0}
  - {r: 0, g: 0, b: 0, a: 0}
  - {r: 0, g: 0, b: 0, a: 0}
  - {r: 0, g: 0, b: 0, a: 0}
  - {r: 0, g: 0, b: 0, a: 0}
  - {r: 0, g: 0, b: 0, a: 0}
  - {r: 0, g: 0, b: 0, a: 0}
  - {r: 0, g: 0, b: 0, a: 0}
  - {r: 0, g: 0, b: 0, a: 0}
  - {r: 0, g: 0, b: 0, a: 0}
  - {r: 0, g: 0, b: 0, a: 0}
  - {r: 0, g: 0, b: 0, a: 0}
  - {r: 0, g: 0, b: 0, a: 0}
  - {r: 0, g: 0, b: 0, a: 0}
  - {r: 0, g: 0, b: 0, a: 0}
  - {r: 0, g: 0, b: 0, a: 0}
  - {r: 0, g: 0, b: 0, a: 0}
  - {r: 0, g: 0, b: 0, a: 0}
  - {r: 0, g: 0, b: 0, a: 0}
  - {r: 0, g: 0, b: 0, a: 0}
  - {r: 0, g: 0, b: 0, a: 0}
  - {r: 0, g: 0, b: 0, a: 0}
  - {r: 0, g: 0, b: 0, a: 0}
  - {r: 0, g: 0, b: 0, a: 0}
  - {r: 0, g: 0, b: 0, a: 0}
  - {r: 0, g: 0, b: 0, a: 0}
  - {r: 0, g: 0, b: 0, a: 0}
  - {r: 0, g: 0, b: 0, a: 0}
  - {r: 0, g: 0, b: 0, a: 0}
  - {r: 0, g: 0, b: 0, a: 0}
  - {r: 0, g: 0, b: 0, a: 0}
  - {r: 0, g: 0, b: 0, a: 0}
  - {r: 0, g: 0, b: 0, a: 0}
  - {r: 0, g: 0, b: 0, a: 0}
  - {r: 0, g: 0, b: 0, a: 0}
  - {r: 0, g: 0, b: 0, a: 0}
  - {r: 0, g: 0, b: 0, a: 0}
  - {r: 0, g: 0, b: 0, a: 0}
  - {r: 0, g: 0, b: 0, a: 0}
  - {r: 0, g: 0, b: 0, a: 0}
  - {r: 0, g: 0, b: 0, a: 0}
  - {r: 0, g: 0, b: 0, a: 0}
  - {r: 0, g: 0, b: 0, a: 0}
  - {r: 0, g: 0, b: 0, a: 0}
  - {r: 0, g: 0, b: 0, a: 0}
  - {r: 0, g: 0, b: 0, a: 0}
  - {r: 0, g: 0, b: 0, a: 0}
  - {r: 0, g: 0, b: 0, a: 0}
  - {r: 0, g: 0, b: 0, a: 0}
  - {r: 0, g: 0, b: 0, a: 0}
  - {r: 0, g: 0, b: 0, a: 0}
  - {r: 0, g: 0, b: 0, a: 0}
  - {r: 0, g: 0, b: 0, a: 0}
  - {r: 0, g: 0, b: 0, a: 0}
  - {r: 0, g: 0, b: 0, a: 0}
  - {r: 0, g: 0, b: 0, a: 0}
  - {r: 0, g: 0, b: 0, a: 0}
  - {r: 0, g: 0, b: 0, a: 0}
  - {r: 0, g: 0, b: 0, a: 0}
  - {r: 0, g: 0, b: 0, a: 0}
  - {r: 0, g: 0, b: 0, a: 0}
  - {r: 0, g: 0, b: 0, a: 0}
  - {r: 0, g: 0, b: 0, a: 0}
  - {r: 0, g: 0, b: 0, a: 0}
  - {r: 0, g: 0, b: 0, a: 0}
  - {r: 0, g: 0, b: 0, a: 0}
  - {r: 0, g: 0, b: 0, a: 0}
  - {r: 0, g: 0, b: 0, a: 0}
  - {r: 0, g: 0, b: 0, a: 0}
  - {r: 0, g: 0, b: 0, a: 0}
  - {r: 0, g: 0, b: 0, a: 0}
  - {r: 0, g: 0, b: 0, a: 0}
  - {r: 0, g: 0, b: 0, a: 0}
  - {r: 0, g: 0, b: 0, a: 0}
  - {r: 0, g: 0, b: 0, a: 0}
  - {r: 0, g: 0, b: 0, a: 0}
  - {r: 0, g: 0, b: 0, a: 0}
  - {r: 0, g: 0, b: 0, a: 0}
  - {r: 0, g: 0, b: 0, a: 0}
  - {r: 0, g: 0, b: 0, a: 0}
  - {r: 0, g: 0, b: 0, a: 0}
  - {r: 0, g: 0, b: 0, a: 0}
  - {r: 0, g: 0, b: 0, a: 0}
  - {r: 0, g: 0, b: 0, a: 0}
  - {r: 0, g: 0, b: 0, a: 0}
  - {r: 0, g: 0, b: 0, a: 0}
  - {r: 0, g: 0, b: 0, a: 0}
  - {r: 0, g: 0, b: 0, a: 0}
  - {r: 0, g: 0, b: 0, a: 0}
  - {r: 1, g: 1, b: 1, a: 1}
  - {r: 1, g: 1, b: 1, a: 1}
  - {r: 1, g: 1, b: 1, a: 1}
  - {r: 1, g: 1, b: 1, a: 1}
  - {r: 1, g: 1, b: 1, a: 1}
  - {r: 1, g: 1, b: 1, a: 1}
  - {r: 1, g: 1, b: 1, a: 1}
  - {r: 1, g: 1, b: 1, a: 1}
  - {r: 1, g: 1, b: 1, a: 1}
  - {r: 1, g: 1, b: 1, a: 1}
  - {r: 1, g: 1, b: 1, a: 1}
  - {r: 1, g: 1, b: 1, a: 1}
  - {r: 1, g: 1, b: 1, a: 1}
  - {r: 1, g: 1, b: 1, a: 1}
  - {r: 1, g: 1, b: 1, a: 1}
  - {r: 1, g: 1, b: 1, a: 1}
  - {r: 1, g: 1, b: 1, a: 1}
  - {r: 1, g: 1, b: 1, a: 1}
  - {r: 1, g: 1, b: 1, a: 1}
  - {r: 1, g: 1, b: 1, a: 1}
  - {r: 1, g: 1, b: 1, a: 1}
  - {r: 1, g: 1, b: 1, a: 1}
  - {r: 1, g: 1, b: 1, a: 1}
  - {r: 1, g: 1, b: 1, a: 1}
  - {r: 1, g: 1, b: 1, a: 1}
  - {r: 1, g: 1, b: 1, a: 1}
  - {r: 1, g: 1, b: 1, a: 1}
  - {r: 1, g: 1, b: 1, a: 1}
  - {r: 1, g: 1, b: 1, a: 1}
  - {r: 1, g: 1, b: 1, a: 1}
  - {r: 1, g: 1, b: 1, a: 1}
  - {r: 1, g: 1, b: 1, a: 1}
  - {r: 1, g: 1, b: 1, a: 1}
  - {r: 1, g: 1, b: 1, a: 1}
  - {r: 1, g: 1, b: 1, a: 1}
  - {r: 1, g: 1, b: 1, a: 1}
  - {r: 1, g: 1, b: 1, a: 1}
  - {r: 1, g: 1, b: 1, a: 1}
  - {r: 1, g: 1, b: 1, a: 1}
  - {r: 1, g: 1, b: 1, a: 1}
  - {r: 1, g: 1, b: 1, a: 1}
  - {r: 1, g: 1, b: 1, a: 1}
  - {r: 1, g: 1, b: 1, a: 1}
  - {r: 1, g: 1, b: 1, a: 1}
  - {r: 1, g: 1, b: 1, a: 1}
  - {r: 1, g: 1, b: 1, a: 1}
  - {r: 1, g: 1, b: 1, a: 1}
  - {r: 1, g: 1, b: 1, a: 1}
  - {r: 1, g: 1, b: 1, a: 1}
  - {r: 1, g: 1, b: 1, a: 1}
  - {r: 1, g: 1, b: 1, a: 1}
  - {r: 1, g: 1, b: 1, a: 1}
  - {r: 1, g: 1, b: 1, a: 1}
  - {r: 1, g: 1, b: 1, a: 1}
  - {r: 1, g: 1, b: 1, a: 1}
  - {r: 1, g: 1, b: 1, a: 1}
  - {r: 1, g: 1, b: 1, a: 1}
  - {r: 1, g: 1, b: 1, a: 1}
  - {r: 1, g: 1, b: 1, a: 1}
  - {r: 1, g: 1, b: 1, a: 1}
  - {r: 1, g: 1, b: 1, a: 1}
  - {r: 1, g: 1, b: 1, a: 1}
  - {r: 1, g: 1, b: 1, a: 1}
  - {r: 1, g: 1, b: 1, a: 1}
  - {r: 0, g: 0, b: 0, a: 0}
  - {r: 0, g: 0, b: 0, a: 0}
  - {r: 0, g: 0, b: 0, a: 0}
  - {r: 0, g: 0, b: 0, a: 0}
  - {r: 0, g: 0, b: 0, a: 0}
  - {r: 0, g: 0, b: 0, a: 0}
  - {r: 0, g: 0, b: 0, a: 0}
  - {r: 0, g: 0, b: 0, a: 0}
  - {r: 0, g: 0, b: 0, a: 0}
  - {r: 0, g: 0, b: 0, a: 0}
  - {r: 0, g: 0, b: 0, a: 0}
  - {r: 0, g: 0, b: 0, a: 0}
  - {r: 0, g: 0, b: 0, a: 0}
  - {r: 0, g: 0, b: 0, a: 0}
  - {r: 0, g: 0, b: 0, a: 0}
  - {r: 0, g: 0, b: 0, a: 0}
  - {r: 0, g: 0, b: 0, a: 0}
  - {r: 0, g: 0, b: 0, a: 0}
  - {r: 0, g: 0, b: 0, a: 0}
  - {r: 0, g: 0, b: 0, a: 0}
  - {r: 0, g: 0, b: 0, a: 0}
  - {r: 0, g: 0, b: 0, a: 0}
  - {r: 0, g: 0, b: 0, a: 0}
  - {r: 0, g: 0, b: 0, a: 0}
  - {r: 0, g: 0, b: 0, a: 0}
  - {r: 0, g: 0, b: 0, a: 0}
  - {r: 0, g: 0, b: 0, a: 0}
  - {r: 0, g: 0, b: 0, a: 0}
  - {r: 0, g: 0, b: 0, a: 0}
  - {r: 0, g: 0, b: 0, a: 0}
  - {r: 0, g: 0, b: 0, a: 0}
  - {r: 0, g: 0, b: 0, a: 0}
  - {r: 0, g: 0, b: 0, a: 0}
  - {r: 0, g: 0, b: 0, a: 0}
  - {r: 0, g: 0, b: 0, a: 0}
  - {r: 0, g: 0, b: 0, a: 0}
  - {r: 0, g: 0, b: 0, a: 0}
  - {r: 0, g: 0, b: 0, a: 0}
  - {r: 0, g: 0, b: 0, a: 0}
  - {r: 0, g: 0, b: 0, a: 0}
  - {r: 0, g: 0, b: 0, a: 0}
  - {r: 0, g: 0, b: 0, a: 0}
  - {r: 0, g: 0, b: 0, a: 0}
  - {r: 0, g: 0, b: 0, a: 0}
  - {r: 0, g: 0, b: 0, a: 0}
  - {r: 0, g: 0, b: 0, a: 0}
  - {r: 0, g: 0, b: 0, a: 0}
  - {r: 0, g: 0, b: 0, a: 0}
  - {r: 0, g: 0, b: 0, a: 0}
  - {r: 0, g: 0, b: 0, a: 0}
  - {r: 0, g: 0, b: 0, a: 0}
  - {r: 0, g: 0, b: 0, a: 0}
  - {r: 0, g: 0, b: 0, a: 0}
  - {r: 0, g: 0, b: 0, a: 0}
  - {r: 0, g: 0, b: 0, a: 0}
  - {r: 0, g: 0, b: 0, a: 0}
  - {r: 0, g: 0, b: 0, a: 0}
  - {r: 0, g: 0, b: 0, a: 0}
  - {r: 0, g: 0, b: 0, a: 0}
  - {r: 0, g: 0, b: 0, a: 0}
  - {r: 0, g: 0, b: 0, a: 0}
  - {r: 0, g: 0, b: 0, a: 0}
  - {r: 0, g: 0, b: 0, a: 0}
  - {r: 0, g: 0, b: 0, a: 0}
  - {r: 0, g: 0, b: 0, a: 0}
  - {r: 0, g: 0, b: 0, a: 0}
  - {r: 0, g: 0, b: 0, a: 0}
  - {r: 0, g: 0, b: 0, a: 0}
  - {r: 0, g: 0, b: 0, a: 0}
  - {r: 0, g: 0, b: 0, a: 0}
  - {r: 0, g: 0, b: 0, a: 0}
  - {r: 0, g: 0, b: 0, a: 0}
  - {r: 0, g: 0, b: 0, a: 0}
  - {r: 0, g: 0, b: 0, a: 0}
  - {r: 0, g: 0, b: 0, a: 0}
  - {r: 0, g: 0, b: 0, a: 0}
  - {r: 0, g: 0, b: 0, a: 0}
  - {r: 0, g: 0, b: 0, a: 0}
  - {r: 0, g: 0, b: 0, a: 0}
  - {r: 0, g: 0, b: 0, a: 0}
  - {r: 0, g: 0, b: 0, a: 0}
  - {r: 0, g: 0, b: 0, a: 0}
  - {r: 0, g: 0, b: 0, a: 0}
  - {r: 0, g: 0, b: 0, a: 0}
  - {r: 0, g: 0, b: 0, a: 0}
  - {r: 0, g: 0, b: 0, a: 0}
  - {r: 0, g: 0, b: 0, a: 0}
  - {r: 0, g: 0, b: 0, a: 0}
  - {r: 0, g: 0, b: 0, a: 0}
  - {r: 0, g: 0, b: 0, a: 0}
  - {r: 0, g: 0, b: 0, a: 0}
  - {r: 0, g: 0, b: 0, a: 0}
  - {r: 0, g: 0, b: 0, a: 0}
  - {r: 0, g: 0, b: 0, a: 0}
  - {r: 0, g: 0, b: 0, a: 0}
  - {r: 0, g: 0, b: 0, a: 0}
  - {r: 0, g: 0, b: 0, a: 0}
  - {r: 0, g: 0, b: 0, a: 0}
  - {r: 0, g: 0, b: 0, a: 0}
  - {r: 0, g: 0, b: 0, a: 0}
  - {r: 0, g: 0, b: 0, a: 0}
  - {r: 0, g: 0, b: 0, a: 0}
  - {r: 0, g: 0, b: 0, a: 0}
  - {r: 0, g: 0, b: 0, a: 0}
  - {r: 0, g: 0, b: 0, a: 0}
  - {r: 0, g: 0, b: 0, a: 0}
  - {r: 0, g: 0, b: 0, a: 0}
  - {r: 0, g: 0, b: 0, a: 0}
  - {r: 0, g: 0, b: 0, a: 0}
  - {r: 0, g: 0, b: 0, a: 0}
  - {r: 0, g: 0, b: 0, a: 0}
  - {r: 0, g: 0, b: 0, a: 0}
  - {r: 0, g: 0, b: 0, a: 0}
  - {r: 0, g: 0, b: 0, a: 0}
  - {r: 0, g: 0, b: 0, a: 0}
  - {r: 0, g: 0, b: 0, a: 0}
  - {r: 0, g: 0, b: 0, a: 0}
  - {r: 0, g: 0, b: 0, a: 0}
  - {r: 0, g: 0, b: 0, a: 0}
  - {r: 0, g: 0, b: 0, a: 0}
  - {r: 0, g: 0, b: 0, a: 0}
  - {r: 0, g: 0, b: 0, a: 0}
  - {r: 0, g: 0, b: 0, a: 0}
  - {r: 0, g: 0, b: 0, a: 0}
  - {r: 0, g: 0, b: 0, a: 0}
  - {r: 0, g: 0, b: 0, a: 0}
  - {r: 0, g: 0, b: 0, a: 0}
  - {r: 0, g: 0, b: 0, a: 0}
  - {r: 1, g: 1, b: 1, a: 1}
  - {r: 1, g: 1, b: 1, a: 1}
  - {r: 1, g: 1, b: 1, a: 1}
  - {r: 1, g: 1, b: 1, a: 1}
  - {r: 0, g: 0, b: 0, a: 0}
  - {r: 0, g: 0, b: 0, a: 0}
  - {r: 0, g: 0, b: 0, a: 0}
  - {r: 0, g: 0, b: 0, a: 0}
  - {r: 0, g: 0, b: 0, a: 0}
  - {r: 1, g: 1, b: 1, a: 1}
  - {r: 1, g: 1, b: 1, a: 1}
  - {r: 0, g: 0, b: 0, a: 0}
  - {r: 0, g: 0, b: 0, a: 0}
  - {r: 0, g: 0, b: 0, a: 0}
  - {r: 0, g: 0, b: 0, a: 0}
  - {r: 0, g: 0, b: 0, a: 0}
  - {r: 0, g: 0, b: 0, a: 0}
  - {r: 0, g: 0, b: 0, a: 0}
  - {r: 0, g: 0, b: 0, a: 0}
  - {r: 0, g: 0, b: 0, a: 0}
  - {r: 0, g: 0, b: 0, a: 0}
  - {r: 0, g: 0, b: 0, a: 0}
  - {r: 0, g: 0, b: 0, a: 0}
  - {r: 0, g: 0, b: 0, a: 0}
  - {r: 0, g: 0, b: 0, a: 0}
  - {r: 0, g: 0, b: 0, a: 0}
  - {r: 0, g: 0, b: 0, a: 0}
  - {r: 0, g: 0, b: 0, a: 0}
  - {r: 0, g: 0, b: 0, a: 0}
  - {r: 0, g: 0, b: 0, a: 0}
  - {r: 0, g: 0, b: 0, a: 0}
  - {r: 0, g: 0, b: 0, a: 0}
  geoCurve:
    serializedVersion: 2
    m_Curve:
    - serializedVersion: 3
      time: 0
      value: 0
      inSlope: 0
      outSlope: 0
      tangentMode: 0
      weightedMode: 0
      inWeight: 0
      outWeight: 0
    m_PreInfinity: 2
    m_PostInfinity: 2
    m_RotationOrder: 4
