%YAML 1.1
%TAG !u! tag:unity3d.com,2011:
--- !u!1 &4675525648743003319
GameObject:
  m_ObjectHideFlags: 0
  m_CorrespondingSourceObject: {fileID: 0}
  m_PrefabInstance: {fileID: 0}
  m_PrefabAsset: {fileID: 0}
  serializedVersion: 6
  m_Component:
  - component: {fileID: 4675525648743003317}
  - component: {fileID: 4675525648743003316}
  - component: {fileID: -2695225151379514001}
  m_Layer: 0
  m_Name: RPGDialogue_Bulwer
  m_TagString: Untagged
  m_Icon: {fileID: 0}
  m_NavMeshLayer: 0
  m_StaticEditorFlags: 0
  m_IsActive: 1
--- !u!4 &4675525648743003317
Transform:
  m_ObjectHideFlags: 0
  m_CorrespondingSourceObject: {fileID: 0}
  m_PrefabInstance: {fileID: 0}
  m_PrefabAsset: {fileID: 0}
  m_GameObject: {fileID: 4675525648743003319}
  m_LocalRotation: {x: 0, y: 0, z: 0, w: 1}
  m_LocalPosition: {x: 7.7857323, y: 13.723367, z: 23.735132}
  m_LocalScale: {x: 1, y: 1, z: 1}
  m_Children: []
  m_Father: {fileID: 0}
  m_RootOrder: 0
  m_LocalEulerAnglesHint: {x: 0, y: 0, z: 0}
--- !u!114 &4675525648743003316
MonoBehaviour:
  m_ObjectHideFlags: 0
  m_CorrespondingSourceObject: {fileID: 0}
  m_PrefabInstance: {fileID: 0}
  m_PrefabAsset: {fileID: 0}
  m_GameObject: {fileID: 4675525648743003319}
  m_Enabled: 1
  m_EditorHideFlags: 0
  m_Script: {fileID: 11500000, guid: 565fd263440bd45fa9ba0925c60f54f9, type: 3}
  m_Name: 
  m_EditorClassIdentifier: 
  startOnAwake: 1
  showWithDialog: []
  textUIObj: {fileID: 0}
  dialoger: 0
  dialogerObj: {fileID: 0}
  shouldFollow: 0
  following: {fileID: 0}
  followingOffset: {x: 0, y: 0, z: 0}
  billboard: 1
  mainCamera: 1
  otherCamera: {fileID: 0}
  txtToParse: {fileID: 4900000, guid: 8d90bff8e3764514492fb126ea36f1b7, type: 3}
  enableQuickSkip: 0
  callback:
    m_PersistentCalls:
      m_Calls: []
    m_TypeName: UnityEngine.Events.UnityEvent, UnityEngine.CoreModule, Version=0.0.0.0,
      Culture=neutral, PublicKeyToken=null
  animatorWhenTalking: {fileID: 0}
  actualAnimator: {fileID: 0}
  animatorBooleanName: 
  animatorIntName: 
  cutscenePosition: 0
  textSpeed: 50
  currentChar: 0
  variables: []
  shouldUsePhotos: 0
  characters:
  - character: {fileID: 0}
    follow: {fileID: 0}
    followOffset: {x: 0, y: 0, z: 0}
    animatorOverwrite: {fileID: 0}
  UIPhoto: {fileID: 0}
  shouldStayOnScreen: 0
  textAudio: {fileID: 0}
  passAudio: {fileID: 0}
  passWithMouse: 1
  passWithInputButton: 
  passWithKey: 32
  enablePass: 1
  autoPass: 0
  secondsAutoPass: 3
  lineToStart: Cutscene_0_begin
  lineToBreak: Cutscene_0_end
  wordWrap: 0
  maxCharInWidth: 50
  maxCharInHeight: 4
  sprites: []
  spritesUsed: []
  tmpSpriteAtlas: Default Sprite Asset
  actualTextSpeed: 0
  isPlaying: 0
  isAnimating: 0
  choicePrefab: {fileID: 5537825930829215970, guid: fb33573b6e641b84da67b06f49c69bbe,
    type: 3}
  choicesParent: {fileID: 0}
  expressing:
    name: 
    photo: {fileID: 0}
    boolInAnimator: 
    audio: {fileID: 0}
  saveInstance: {fileID: 0}
  goBackToOriginalStartAndBreak: 0
--- !u!114 &-2695225151379514001
MonoBehaviour:
  m_ObjectHideFlags: 0
  m_CorrespondingSourceObject: {fileID: 0}
  m_PrefabInstance: {fileID: 0}
  m_PrefabAsset: {fileID: 0}
  m_GameObject: {fileID: 4675525648743003319}
  m_Enabled: 1
  m_EditorHideFlags: 0
  m_Script: {fileID: 11500000, guid: 5bcc375056be551468f8e0fbe2d186f3, type: 3}
  m_Name: 
  m_EditorClassIdentifier: 
  EndTalkEvent:
    m_PersistentCalls:
      m_Calls:
      - m_Target: {fileID: 0}
        m_MethodName: 
        m_Mode: 1
        m_Arguments:
          m_ObjectArgument: {fileID: 0}
          m_ObjectArgumentAssemblyTypeName: 
          m_IntArgument: 0
          m_FloatArgument: 0
          m_StringArgument: 
          m_BoolArgument: 0
        m_CallState: 2
    m_TypeName: UnityEngine.Events.UnityEvent, UnityEngine.CoreModule, Version=0.0.0.0,
      Culture=neutral, PublicKeyToken=null
  EndTalkEvent2:
    m_PersistentCalls:
      m_Calls: []
    m_TypeName: UnityEngine.Events.UnityEvent, UnityEngine.CoreModule, Version=0.0.0.0,
      Culture=neutral, PublicKeyToken=null
  EndTalkEvent3:
    m_PersistentCalls:
      m_Calls: []
    m_TypeName: UnityEngine.Events.UnityEvent, UnityEngine.CoreModule, Version=0.0.0.0,
      Culture=neutral, PublicKeyToken=null
  isOutSide: 0
