%YAML 1.1
%TAG !u! tag:unity3d.com,2011:
--- !u!21 &2100000
Material:
  serializedVersion: 6
  m_ObjectHideFlags: 0
  m_CorrespondingSourceObject: {fileID: 0}
  m_PrefabInstance: {fileID: 0}
  m_PrefabAsset: {fileID: 0}
  m_Name: FireShader
  m_Shader: {fileID: 4800000, guid: 887e01f6f67ffd643bee37e66d82113d, type: 3}
  m_ShaderKeywords: 
  m_LightmapFlags: 0
  m_EnableInstancingVariants: 0
  m_DoubleSidedGI: 0
  m_CustomRenderQueue: -1
  stringTagMap: {}
  disabledShaderPasses: []
  m_SavedProperties:
    serializedVersion: 3
    m_TexEnvs:
    - _texcoord:
        m_Texture: {fileID: 0}
        m_Scale: {x: 1, y: 1}
        m_Offset: {x: 0, y: 0}
    m_Floats:
    - _DistortStrength: 0.2
    - _FireBaseStrenght: 0.25
    - _GradientAStrenght: 0.99
    - _GradientBStrength: 2.65
    - __dirty: 0
    m_Colors:
    - _DistortTiling: {r: 2.23, g: 3, b: 0, a: 0}
    - _FireColor: {r: 5.7742424, g: 1.6691598, b: 0.13618493, a: 0}
    - _FireTiling: {r: 9.11, g: 4.48, b: 0, a: 0}
    - _PannerSpeed: {r: 1, g: 5, b: 0, a: 0}
    - _TheWind: {r: 1, g: 0, b: 0.5, a: 0}
    - _Vector0: {r: 10, g: 10, b: 5, a: 0}
    - _WindPannerSpeed: {r: 0.6, g: 0, b: 0, a: 0}
    - _WindTiling: {r: 1, g: 0.2, b: 0, a: 0}
