%YAML 1.1
%TAG !u! tag:unity3d.com,2011:
--- !u!114 &11400000
MonoBehaviour:
  m_ObjectHideFlags: 0
  m_PrefabParentObject: {fileID: 0}
  m_PrefabInternal: {fileID: 0}
  m_GameObject: {fileID: 0}
  m_Enabled: 1
  m_EditorHideFlags: 0
  m_Script: {fileID: 11500000, guid: 78b2425a2284af743826c689403a4924, type: 3}
  m_Name: Shader_function_SimpleDissolve
  m_EditorClassIdentifier: 
  m_functionInfo: "// Made with Amplify Shader Editor\n// Available at the Unity Asset
    Store - http://u3d.as/y3X \n/*ASEBEGIN\nVersion=15600\n2114;189;1726;763;6005.41;700.9108;1.872762;True;True\nNode;AmplifyShaderEditor.RangedFloatNode;5;-3217.171,-460.518;Half;False;Constant;_Float0;Float
    0;5;0;Create;True;0;0;False;0;2;0;0;0;0;1;FLOAT;0\nNode;AmplifyShaderEditor.GetLocalVarNode;17;-3142.353,125.2386;Float;False;13;_MaskTex;0;1;FLOAT;0\nNode;AmplifyShaderEditor.SimpleMultiplyOpNode;7;-2585.982,-481.3352;Float;False;2;2;0;COLOR;0,0,0,0;False;1;FLOAT;0;False;1;COLOR;0\nNode;AmplifyShaderEditor.PowerNode;6;-2783.491,-520.0664;Float;False;2;0;COLOR;0,0,0,0;False;1;FLOAT;0;False;1;COLOR;0\nNode;AmplifyShaderEditor.RegisterLocalVarNode;13;-3537,132.7688;Float;False;_MaskTex;-1;True;1;0;FLOAT;0;False;1;FLOAT;0\nNode;AmplifyShaderEditor.RangedFloatNode;14;-3238.353,45.23866;Half;False;Property;_MaskBorder;Mask
    Border;5;1;[HDR];Create;True;0;0;False;0;0;3.62;1;5;0;1;FLOAT;0\nNode;AmplifyShaderEditor.ColorNode;2;-3278.552,-988.3898;Half;False;Property;_DissolveColor1;DissolveColor1;3;1;[HDR];Create;True;0;0;False;0;2.297397,1.000043,0.225235,0;1,0.09803908,0.1166606,0;0;5;COLOR;0;FLOAT;1;FLOAT;2;FLOAT;3;FLOAT;4\nNode;AmplifyShaderEditor.TextureCoordinatesNode;28;-4670.131,-275.7939;Float;False;0;-1;2;3;2;SAMPLER2D;;False;0;FLOAT2;1,1;False;1;FLOAT2;0,0;False;5;FLOAT2;0;FLOAT;1;FLOAT;2;FLOAT;3;FLOAT;4\nNode;AmplifyShaderEditor.LerpOp;19;-2343.909,-482.3735;Float;False;3;0;COLOR;0,0,0,0;False;1;COLOR;0,0,0,0;False;2;FLOAT;0;False;1;COLOR;0\nNode;AmplifyShaderEditor.FunctionInput;22;-3215.462,-199.0326;Float;False;Emissive;3;0;False;1;0;FLOAT3;0,0,0;False;1;FLOAT3;0\nNode;AmplifyShaderEditor.SimpleMultiplyOpNode;16;-2902.352,-114.7614;Float;False;2;2;0;FLOAT;0;False;1;FLOAT;0;False;1;FLOAT;0\nNode;AmplifyShaderEditor.StepOpNode;18;-2678.351,-114.7614;Float;False;2;0;FLOAT;0;False;1;FLOAT;0;False;1;FLOAT;0\nNode;AmplifyShaderEditor.StepOpNode;20;-2678.351,109.2386;Float;False;2;0;FLOAT;0;False;1;FLOAT;0;False;1;FLOAT;0\nNode;AmplifyShaderEditor.ColorNode;1;-3278.552,-812.3895;Half;False;Property;_DissolveColor2;DissolveColor2;4;1;[HDR];Create;True;0;0;False;0;1,0.8835707,0,0;1,0.8823529,0,0;0;5;COLOR;0;FLOAT;1;FLOAT;2;FLOAT;3;FLOAT;4\nNode;AmplifyShaderEditor.GetLocalVarNode;3;-3262.552,-604.3896;Float;False;13;_MaskTex;0;1;FLOAT;0\nNode;AmplifyShaderEditor.LerpOp;4;-2989.117,-643.6151;Float;False;3;0;COLOR;0,0,0,0;False;1;COLOR;0,0,0,0;False;2;FLOAT;0;False;1;COLOR;0\nNode;AmplifyShaderEditor.SamplerNode;12;-4258.229,77.42485;Float;True;Property;_CutoutMask;Cutout
    Mask;0;1;[NoScaleOffset];Create;True;0;0;False;0;61c0b9c0523734e0e91bc6043c72a490;7613c93e619764f08b0acd9a8413affb;True;0;False;black;Auto;False;Object;-1;Auto;Texture2D;6;0;SAMPLER2D;;False;1;FLOAT2;0,0;False;2;FLOAT;0;False;3;FLOAT2;0,0;False;4;FLOAT2;0,0;False;5;FLOAT;1;False;5;COLOR;0;FLOAT;1;FLOAT;2;FLOAT;3;FLOAT;4\nNode;AmplifyShaderEditor.RangedFloatNode;15;-3238.353,-50.76133;Half;False;Property;_Dissolve;Dissolve;2;0;Create;True;0;0;False;0;0.3406244;0.513;0;1.1;0;1;FLOAT;0\nNode;AmplifyShaderEditor.RangedFloatNode;27;-4917.729,-235.6519;Float;False;Property;_MaskTiling;Mask
    Tiling;1;0;Create;True;0;0;False;0;1;1;0;0;0;1;FLOAT;0\nNode;AmplifyShaderEditor.FunctionOutput;0;-2182.938,-226.1913;Float;False;True;OpacityMask;1;False;1;0;FLOAT;0;False;1;FLOAT;0\nNode;AmplifyShaderEditor.FunctionOutput;23;-2156.192,-484.9145;Float;False;False;Emissive;0;False;1;0;COLOR;0,0,0,0;False;1;COLOR;0\nWireConnection;7;0;6;0\nWireConnection;7;1;5;0\nWireConnection;6;0;4;0\nWireConnection;6;1;5;0\nWireConnection;13;0;12;1\nWireConnection;28;0;27;0\nWireConnection;19;0;7;0\nWireConnection;19;1;22;0\nWireConnection;19;2;18;0\nWireConnection;16;0;15;0\nWireConnection;16;1;14;0\nWireConnection;18;0;16;0\nWireConnection;18;1;17;0\nWireConnection;20;0;15;0\nWireConnection;20;1;17;0\nWireConnection;4;0;2;0\nWireConnection;4;1;1;0\nWireConnection;4;2;3;0\nWireConnection;12;1;28;0\nWireConnection;0;0;20;0\nWireConnection;23;0;19;0\nASEEND*/\n//CHKSM=2E806AD79DEA38B7C3934785B68CE5887E650C27"
  m_functionName: 
  m_description: 
  m_additionalIncludes:
    m_additionalIncludes: []
    m_outsideIncludes: []
  m_additionalPragmas:
    m_additionalPragmas: []
    m_outsidePragmas: []
  m_additionalDirectives:
    m_validData: 0
    m_isDirty: 0
    m_moduleName: ' Additional Directives'
    m_independentModule: 1
    m_additionalDirectives: []
    m_shaderFunctionDirectives: []
    m_nativeDirectives: []
    m_nativeDirectivesFoldout: 0
    m_directivesSaveItems: []
  m_nodeCategory: 3
  m_customNodeCategory: 
  m_previewPosition: 0
